<svg xmlns="http://www.w3.org/2000/svg" width="19.684" height="13.902" viewBox="0 0 19.684 13.902">
  <g id="ico_ca" transform="translate(0 0)">
    <path id="Path_2372" data-name="Path 2372" d="M205.821,1276.337c-.615-.554-.322-1.692-.246-2.186.107-.693.447-1.677.585-2.524a9.8,9.8,0,0,0,.17-1.909,8.191,8.191,0,0,0-.693-3.357,4.061,4.061,0,0,0-6.944,0,7.942,7.942,0,0,0-.693,3.357,9.689,9.689,0,0,0,.17,1.909c.123.847.462,1.815.585,2.524.076.493.369,1.632-.246,2.186,0,0-2.047,1.925,3.648,1.925C207.869,1278.262,205.821,1276.337,205.821,1276.337Zm-6.8-6.45c-.047-.568.4-.845,1.446-.845.925,0,1.448.261,1.448.646,0,.8-.97,1.169-1.755,1.169A1.008,1.008,0,0,1,199.018,1269.887Zm3.14,3.926c-.57,0-1.031-.154-1.031-.708a1.043,1.043,0,1,1,2.063,0C203.19,1273.659,202.728,1273.813,202.158,1273.813Zm3.14-3.926a1,1,0,0,1-1.124.97c-.8,0-1.755-.384-1.755-1.169,0-.385.523-.646,1.448-.646C204.9,1269.026,205.36,1269.3,205.3,1269.887Z" transform="translate(-192.316 -1264.36)" fill="#fff"/>
    <path id="Path_2373" data-name="Path 2373" d="M198.444,1271.183c-.352-.317-.185-.967-.141-1.248.062-.395.254-.957.334-1.441a5.481,5.481,0,0,0,.1-1.089,4.673,4.673,0,0,0-.4-1.916,2.317,2.317,0,0,0-3.962,0,4.515,4.515,0,0,0-.4,1.916,5.537,5.537,0,0,0,.1,1.089c.071.483.264,1.038.334,1.441.045.281.212.931-.14,1.248,0,0-1.168,1.1,2.083,1.1S198.444,1271.183,198.444,1271.183Zm-3.884-3.681c-.027-.325.229-.484.826-.484.527,0,.826.15.826.369,0,.457-.553.669-1,.669A.575.575,0,0,1,194.56,1267.5Zm1.793,2.241c-.325,0-.59-.088-.59-.4a.6.6,0,1,1,1.178,0C196.941,1269.655,196.678,1269.743,196.353,1269.743Zm1.791-2.241a.572.572,0,0,1-.64.554c-.457,0-1-.221-1-.669,0-.219.3-.369.826-.369C197.916,1267.01,198.179,1267.168,198.144,1267.5Z" transform="translate(-193.98 -1264.374)" fill="#fff"/>
    <path id="Path_2374" data-name="Path 2374" d="M206.921,1272.281c3.252,0,2.083-1.1,2.083-1.1-.351-.317-.184-.967-.14-1.248.069-.4.263-.957.334-1.441a5.542,5.542,0,0,0,.1-1.089,4.531,4.531,0,0,0-.394-1.916,2.318,2.318,0,0,0-3.963,0,4.673,4.673,0,0,0-.4,1.916,5.594,5.594,0,0,0,.1,1.089c.079.483.271,1.046.334,1.441.044.281.211.931-.14,1.248C204.831,1271.183,203.662,1272.281,206.921,1272.281Zm1.142-4.224c-.448,0-1-.212-1-.669,0-.219.3-.369.826-.369.6,0,.853.159.826.484A.576.576,0,0,1,208.063,1268.056Zm-1.731,1.282a.6.6,0,1,1,1.178,0c0,.317-.264.4-.59.4S206.333,1269.655,206.333,1269.338Zm-.386-2.321c.527,0,.826.15.826.369,0,.448-.544.669-1,.669a.572.572,0,0,1-.641-.554C205.094,1267.168,205.357,1267.01,205.947,1267.018Z" transform="translate(-189.609 -1264.374)" fill="#fff"/>
  </g>
</svg>
